{
  "forge_marker": 1,
  "variants": {
    "type": {
      "xtbx_crusher": {"model": "ic2dot5:xtbx_crusher"},
      "xtbx_centrifuge": {"model": "ic2dot5:xtbx_centrifuge"},
      "xtbx_vessel": {"model": "ic2dot5:xtbx_centrifuge"},
      "xtbx_input_hatch": {"model": "ic2dot5:xtbx_centrifuge"},


      "ic2dot5_output_bus_tier_1": {"model": "ic2dot5:output_bus_tier_1"},
      "ic2dot5_output_bus_tier_2": {"model": "ic2dot5:output_bus_tier_1"},
      "ic2dot5_output_bus_tier_3": {"model": "ic2dot5:output_bus_tier_1"},
      "ic2dot5_output_bus_tier_4": {"model": "ic2dot5:output_bus_tier_1"},

      "ic2dot5_mb_crusher_tier_1": {"model": "ic2dot5:mb_crusher_tier_1"},
      "ic2dot5_mb_crusher_tier_1_active": {"model": "ic2dot5:mb_crusher_tier_1_active"},

      "ic2dot5_wall": { "model": "ic2:cf/wall" }
    },
    "facing": {
      "down": { "x": 90 },
      "up": { "x": 270 },
      "north": { "transform": "forge:default-block" },
      "south": { "y": 180 },
      "west": { "y": 270 },
      "east": { "y": 90 }
    },
    "inventory": [{}]
  }
}