{
  "parent": "block/cube",
  "textures": {
    "particle": "ic2dot5:blocks/machines/bus_tier_1",
    "down": "ic2dot5:blocks/machines/bus_tier_1",
    "up": "ic2dot5:blocks/machines/bus_tier_1",
    "north": "ic2dot5:blocks/machines/bus_tier_1",
    "east": "ic2dot5:blocks/machines/bus_tier_1",
    "south": "ic2dot5:blocks/machines/bus_tier_1",
    "west": "ic2dot5:blocks/machines/bus_tier_1"
  }
}